…
    ## auk 0.4.2 is designed for EBD files downloaded after 2019-08-15. 
    ## No EBD data directory set, see ?auk_set_ebd_path to set EBD_PATH 
    ## eBird taxonomy version:  2019

``` r
#Read data----

birds <- ebird_taxonomy %>%           # start with the ebird_taxonomy data
  as_tibble() %>%                     # tibbles print better in the console
  filter(category == "species")       # remove non-species taxa

birds
```

    ## # A tibble: 10,721 x 9
    ##    species_code scientific_name  common_name order family family_common category
    ##    <chr>        <chr>            <chr>       <chr> <chr>  <chr>         <chr>   
    ##  1 ostric2      Struthio camelus Common Ost~ Stru~ Strut~ Ostriches     species 
    ##  2 ostric3      Struthio molybd~ Somali Ost~ Stru~ Strut~ Ostriches     species 
    ##  3 grerhe1      Rhea americana   Greater Rh~ Rhei~ Rheid~ Rheas         species 
    ##  4 lesrhe2      Rhea pennata     Lesser Rhea Rhei~ Rheid~ Rheas         species 
    ##  5 tabtin1      Nothocercus jul~ Tawny-brea~ Tina~ Tinam~ Tinamous      species 
    ##  6 higtin1      Nothocercus bon~ Highland T~ Tina~ Tinam~ Tinamous      species 
    ##  7 hootin1      Nothocercus nig~ Hooded Tin~ Tina~ Tinam~ Tinamous      species 
    ##  8 grytin1      Tinamus tao      Gray Tinam~ Tina~ Tinam~ Tinamous      species 
    ##  9 soltin1      Tinamus solitar~ Solitary T~ Tina~ Tinam~ Tinamous      species 
    ## 10 blatin1      Tinamus osgoodi  Black Tina~ Tina~ Tinam~ Tinamous      species 
    ## # ... with 10,711 more rows, and 2 more variables: taxon_order <dbl>,
    ## #   report_as <chr>

``` r
#Table 1

nopassbirds <- filter(birds, order != "Passeriformes")
nopassbirds
```

    ## # A tibble: 4,335 x 9
    ##    species_code scientific_name  common_name order family family_common category
    ##    <chr>        <chr>            <chr>       <chr> <chr>  <chr>         <chr>   
    ##  1 ostric2      Struthio camelus Common Ost~ Stru~ Strut~ Ostriches     species 
    ##  2 ostric3      Struthio molybd~ Somali Ost~ Stru~ Strut~ Ostriches     species 
    ##  3 grerhe1      Rhea americana   Greater Rh~ Rhei~ Rheid~ Rheas         species 
    ##  4 lesrhe2      Rhea pennata     Lesser Rhea Rhei~ Rheid~ Rheas         species 
    ##  5 tabtin1      Nothocercus jul~ Tawny-brea~ Tina~ Tinam~ Tinamous      species 
    ##  6 higtin1      Nothocercus bon~ Highland T~ Tina~ Tinam~ Tinamous      species 
    ##  7 hootin1      Nothocercus nig~ Hooded Tin~ Tina~ Tinam~ Tinamous      species 
    ##  8 grytin1      Tinamus tao      Gray Tinam~ Tina~ Tinam~ Tinamous      species 
    ##  9 soltin1      Tinamus solitar~ Solitary T~ Tina~ Tinam~ Tinamous      species 
    ## 10 blatin1      Tinamus osgoodi  Black Tina~ Tina~ Tinam~ Tinamous      species 
    ## # ... with 4,325 more rows, and 2 more variables: taxon_order <dbl>,
    ## #   report_as <chr>

2.  Print a table containing only species in the Order Passeriformes.
    Include all columns.

``` r
#Table 2

passbirds <- filter(birds, order == "Passeriformes")
passbirds
```

    ## # A tibble: 6,386 x 9
    ##    species_code scientific_name  common_name order family family_common category
    ##    <chr>        <chr>            <chr>       <chr> <chr>  <chr>         <chr>   
    ##  1 stiwre1      Traversia lyalli Stephens I~ Pass~ Acant~ New Zealand ~ species 
    ##  2 riflem1      Acanthisitta ch~ Rifleman    Pass~ Acant~ New Zealand ~ species 
    ##  3 buswre1      Xenicus longipes Bush Wren   Pass~ Acant~ New Zealand ~ species 
    ##  4 soiwre1      Xenicus gilvive~ South Isla~ Pass~ Acant~ New Zealand ~ species 
    ##  5 afrbro1      Smithornis cape~ African Br~ Pass~ Calyp~ African and ~ species 
    ##  6 gyhbro1      Smithornis shar~ Gray-heade~ Pass~ Calyp~ African and ~ species 
    ##  7 rusbro1      Smithornis rufo~ Rufous-sid~ Pass~ Calyp~ African and ~ species 
    ##  8 grebro1      Calyptomena vir~ Green Broa~ Pass~ Calyp~ African and ~ species 
    ##  9 hosbro1      Calyptomena hos~ Hose's Bro~ Pass~ Calyp~ African and ~ species 
    ## 10 whibro1      Calyptomena whi~ Whitehead'~ Pass~ Calyp~ African and ~ species 
    ## # ... with 6,376 more rows, and 2 more variables: taxon_order <dbl>,
    ## #   report_as <chr>

3.  Print a table containing all species. Only the variables Species
    Code, Scientific Name, and Common Name should be in the final table.

``` r
#Table 3 

T3 <- select(birds, species_code, scientific_name, common_name)
T3
```

    ## # A tibble: 10,721 x 3
    ##    species_code scientific_name           common_name           
    ##    <chr>        <chr>                     <chr>                 
    ##  1 ostric2      Struthio camelus          Common Ostrich        
    ##  2 ostric3      Struthio molybdophanes    Somali Ostrich        
    ##  3 grerhe1      Rhea americana            Greater Rhea          
    ##  4 lesrhe2      Rhea pennata              Lesser Rhea           
    ##  5 tabtin1      Nothocercus julius        Tawny-breasted Tinamou
    ##  6 higtin1      Nothocercus bonapartei    Highland Tinamou      
    ##  7 hootin1      Nothocercus nigrocapillus Hooded Tinamou        
    ##  8 grytin1      Tinamus tao               Gray Tinamou          
    ##  9 soltin1      Tinamus solitarius        Solitary Tinamou      
    ## 10 blatin1      Tinamus osgoodi           Black Tinamou         
    ## # ... with 10,711 more rows

4.  Print a table with all species in the Order Passeriformes whose
    common name starts with the word “Common”. Species should be in
    reverse taxonomic order (taxon\_order variable). Only the variables
    Species Code, Scientific Name, and Common Name should be in the
    final table.

``` r
#Table 4

passbirds <- filter(birds, order == "Passeriformes")
passbirds
```

    ## # A tibble: 6,386 x 9
    ##    species_code scientific_name  common_name order family family_common category
    ##    <chr>        <chr>            <chr>       <chr> <chr>  <chr>         <chr>   
    ##  1 stiwre1      Traversia lyalli Stephens I~ Pass~ Acant~ New Zealand ~ species 
    ##  2 riflem1      Acanthisitta ch~ Rifleman    Pass~ Acant~ New Zealand ~ species 
    ##  3 buswre1      Xenicus longipes Bush Wren   Pass~ Acant~ New Zealand ~ species 
    ##  4 soiwre1      Xenicus gilvive~ South Isla~ Pass~ Acant~ New Zealand ~ species 
    ##  5 afrbro1      Smithornis cape~ African Br~ Pass~ Calyp~ African and ~ species 
    ##  6 gyhbro1      Smithornis shar~ Gray-heade~ Pass~ Calyp~ African and ~ species 
    ##  7 rusbro1      Smithornis rufo~ Rufous-sid~ Pass~ Calyp~ African and ~ species 
    ##  8 grebro1      Calyptomena vir~ Green Broa~ Pass~ Calyp~ African and ~ species 
    ##  9 hosbro1      Calyptomena hos~ Hose's Bro~ Pass~ Calyp~ African and ~ species 
    ## 10 whibro1      Calyptomena whi~ Whitehead'~ Pass~ Calyp~ African and ~ species 
    ## # ... with 6,376 more rows, and 2 more variables: taxon_order <dbl>,
    ## #   report_as <chr>

``` r
T4 <- select(passbirds, species_code, scientific_name, common_name)
filter(T4, str_detect(common_name, "Common"))
```

    ## # A tibble: 32 x 3
    ##    species_code scientific_name            common_name                
    ##    <chr>        <chr>                      <chr>                      
    ##  1 sunasi1      Neodrepanis coruscans      Common Sunbird-Asity       
    ##  2 scbant3      Willisornis poecilinotus   Common Scale-backed Antbird
    ##  3 commin1      Geositta cunicularia       Common Miner               
    ##  4 cotfly1      Todirostrum cinereum       Common Tody-Flycatcher     
    ##  5 cicada1      Edolisoma tenuirostre      Common Cicadabird          
    ##  6 comwoo1      Tephrodornis pondicerianus Common Woodshrike          
    ##  7 comnew1      Newtonia brunneicauda      Common Newtonia            
    ##  8 comior1      Aegithina tiphia           Common Iora                
    ##  9 cstdro1      Dicrurus ludwigii          Common Square-tailed Drongo
    ## 10 gremag1      Cissa chinensis            Common Green-Magpie        
    ## # ... with 22 more rows

5.  Print a table containing species with “Warbler” in the common name.
    Include all columns.

``` r
#Table 5

T5 <- filter(birds, str_detect(common_name, "Warbler"))
T5
```

    ## # A tibble: 334 x 9
    ##    species_code scientific_name  common_name order family family_common category
    ##    <chr>        <chr>            <chr>       <chr> <chr>  <chr>         <chr>   
    ##  1 rumwar1      Crateroscelis m~ Rusty Mous~ Pass~ Acant~ Thornbills a~ species 
    ##  2 bimwar1      Crateroscelis n~ Bicolored ~ Pass~ Acant~ Thornbills a~ species 
    ##  3 momwar1      Crateroscelis r~ Mountain M~ Pass~ Acant~ Thornbills a~ species 
    ##  4 spewar3      Pyrrholaemus sa~ Speckled W~ Pass~ Acant~ Thornbills a~ species 
    ##  5 mogwar1      Melocichla ment~ Moustached~ Pass~ Macro~ African Warb~ species 
    ##  6 viswar1      Cryptillas vict~ Victorin's~ Pass~ Macro~ African Warb~ species 
    ##  7 grawar1      Graueria vittata Grauer's W~ Pass~ Macro~ African Warb~ species 
    ##  8 mitbab1      Micromacronus l~ Leyte Plum~ Pass~ Cisti~ Cisticolas a~ species 
    ##  9 minmib1      Micromacronus s~ Mindanao P~ Pass~ Cisti~ Cisticolas a~ species 
    ## 10 rwgwar2      Drymocichla inc~ Red-winged~ Pass~ Cisti~ Cisticolas a~ species 
    ## # ... with 324 more rows, and 2 more variables: taxon_order <dbl>,
    ## #   report_as <chr>
…
